<?xml version="1.0" encoding="UTF-8"?>
<svg height="128px" viewBox="0 0 128 128" width="128px" xmlns="http://www.w3.org/2000/svg">
    <path d="m 28 12 h 72 c 8.835938 0 16 7.164062 16 16 v 72 c 0 8.835938 -7.164062 16 -16 16 h -72 c -8.835938 0 -16 -7.164062 -16 -16 v -72 c 0 -8.835938 7.164062 -16 16 -16 z m 0 0" fill="#1c71d8"/>
    <path d="m 38 58 c 17.671875 0 32 14.328125 32 32" fill="none" stroke="#ffffff" stroke-linecap="round" stroke-linejoin="round" stroke-width="8"/>
    <path d="m 38 38 c 28.71875 0 52 23.28125 52 52" fill="none" stroke="#ffffff" stroke-linecap="round" stroke-linejoin="round" stroke-width="8"/>
    <path d="m 53.992188 84 c 0 5.515625 -4.476563 9.992188 -9.992188 9.992188 s -9.992188 -4.476563 -9.992188 -9.992188 s 4.476563 -9.992188 9.992188 -9.992188 s 9.992188 4.476563 9.992188 9.992188 z m 0 0" fill="#ffffff"/>
</svg>
