<?xml version="1.0" encoding="UTF-8"?>
<svg height="128px" viewBox="0 0 128 128" width="128px" xmlns="http://www.w3.org/2000/svg" xmlns:xlink="http://www.w3.org/1999/xlink">
    <clipPath id="a">
        <rect height="152" width="192"/>
    </clipPath>
    <clipPath id="b">
        <rect height="152" width="192"/>
    </clipPath>
    <path d="m 28 12 h 72 c 8.835938 0 16 7.164062 16 16 v 72 c 0 8.835938 -7.164062 16 -16 16 h -72 c -8.835938 0 -16 -7.164062 -16 -16 v -72 c 0 -8.835938 7.164062 -16 16 -16 z m 0 0" fill="#be2828"/>
    <g clip-path="url(#a)" transform="matrix(1 0 0 1 -8 -16)">
        <path d="m 72.0625 51 l -15.332031 15.132812 c -5.273438 4.84375 -8.730469 11.445313 -8.730469 18.671876 c 0 13.363281 10.734375 24.195312 23.972656 24.195312 c 13.242188 0 24.027344 -10.804688 24.027344 -24.164062 c 0 -7.339844 -3.175781 -13.730469 -8.972656 -18.875 z m -0.03125 21.886719 h 0.003906 c 6.488282 0 11.746094 5.296875 11.746094 11.835937 c 0 6.535156 -5.257812 11.832032 -11.746094 11.832032 c -6.484375 0 -11.742187 -5.296876 -11.742187 -11.832032 s 5.253906 -11.832031 11.738281 -11.835937 z m 0 0" fill="#ffffff"/>
    </g>
    <g clip-path="url(#b)" transform="matrix(1 0 0 1 -8 -16)">
        <path d="m 176.015625 16 l -4.226563 4.175781 c -1.457031 1.335938 -2.410156 3.15625 -2.410156 5.148438 c 0 3.6875 2.960938 6.675781 6.613282 6.675781 c 3.652343 0 6.628906 -2.980469 6.628906 -6.667969 c 0 -2.023437 -0.875 -3.785156 -2.476563 -5.203125 z m -0.007813 6.039062 c 1.792969 0 3.242188 1.460938 3.242188 3.261719 c 0 1.804688 -1.449219 3.265625 -3.238281 3.265625 c -1.792969 0 -3.242188 -1.460937 -3.242188 -3.265625 c 0 -1.800781 1.449219 -3.261719 3.238281 -3.261719 z m 0 0"/>
    </g>
</svg>
