<?xml version="1.0" encoding="UTF-8" standalone="no"?>
<!-- Created with Inkscape (http://www.inkscape.org/) -->

<svg
   inkscape:export-ydpi="96"
   inkscape:export-xdpi="96"
   inkscape:export-filename="Template.png"
   width="192"
   height="152"
   id="svg11300"
   sodipodi:version="0.32"
   inkscape:version="1.3 (0e150ed6c4, 2023-07-21)"
   sodipodi:docname="newsblur.Source.svg"
   inkscape:output_extension="org.inkscape.output.svg.inkscape"
   version="1.0"
   style="display:inline;enable-background:new"
   viewBox="0 0 192 152"
   xml:space="preserve"
   xmlns:inkscape="http://www.inkscape.org/namespaces/inkscape"
   xmlns:sodipodi="http://sodipodi.sourceforge.net/DTD/sodipodi-0.dtd"
   xmlns:xlink="http://www.w3.org/1999/xlink"
   xmlns="http://www.w3.org/2000/svg"
   xmlns:svg="http://www.w3.org/2000/svg"
   xmlns:rdf="http://www.w3.org/1999/02/22-rdf-syntax-ns#"
   xmlns:cc="http://creativecommons.org/ns#"
   xmlns:dc="http://purl.org/dc/elements/1.1/"><title
     id="title4162">Adwaita Icon Template</title><defs
     id="defs3"><polygon
       id="SVGID_1_"
       points="306.063,58.975 360.164,175.464 480.789,131.349 436.674,251.974 553.163,306.075            436.674,360.175 480.789,480.8 360.164,436.686 306.063,553.174 251.962,436.686 131.338,480.8 175.452,360.175 58.964,306.075            175.452,251.974 131.338,131.349 251.962,175.464         " /><path
       id="SVGID_3_"
       d="M305,436.085c-71.101,0-128.945-57.845-128.945-128.945c0-71.1,57.844-128.945,128.945-128.945           c71.102,0,128.945,57.845,128.945,128.945C433.945,378.24,376.102,436.085,305,436.085z M305,199.508           c-59.348,0-107.632,48.284-107.632,107.632c0,59.35,48.284,107.633,107.632,107.633c59.35,0,107.632-48.283,107.632-107.633           C412.632,247.792,364.35,199.508,305,199.508z" /><path
       id="SVGID_5_"
       d="M305,478.752c-94.627,0-171.613-76.984-171.613-171.612c0-94.626,76.985-171.612,171.613-171.612           s171.612,76.985,171.612,171.612C476.612,401.768,399.628,478.752,305,478.752z M305,146.267           c-88.707,0-160.874,72.167-160.874,160.874c0,88.707,72.167,160.874,160.874,160.874c88.706,0,160.874-72.169,160.874-160.875           C465.874,218.434,393.706,146.267,305,146.267z" /><path
       id="SVGID_7_"
       d="M305,510.105c-111.916,0-202.965-91.05-202.965-202.966c0-111.915,91.049-202.965,202.965-202.965           c111.915,0,202.965,91.05,202.965,202.965C507.965,419.056,416.915,510.105,305,510.105z M305,116.876           c-104.912,0-190.265,85.353-190.265,190.264c0,104.913,85.353,190.266,190.265,190.266s190.265-85.353,190.265-190.266           C495.265,202.229,409.912,116.876,305,116.876z" /><path
       id="SVGID_9_"
       d="M305,542.923c-62.98,0-122.19-24.523-166.725-69.059c-44.534-44.533-69.06-103.744-69.06-166.726           c0-62.979,24.526-122.189,69.06-166.725C182.81,95.882,242.02,71.356,305,71.356c62.98,0,122.191,24.526,166.724,69.059           c44.534,44.534,69.061,103.745,69.061,166.725c0,62.98-24.525,122.191-69.061,166.726           C427.191,518.399,367.98,542.923,305,542.923z M305,86.11c-121.876,0-221.03,99.154-221.03,221.03           c0,121.876,99.154,221.029,221.03,221.029s221.029-99.153,221.029-221.029C526.029,185.264,426.876,86.11,305,86.11z" /><polygon
       id="SVGID_11_"
       points="217.368,308.36 208.42,282.809 201.383,282.809 201.383,328.455 208.42,328.455 208.42,302.903            217.368,328.455 224.405,328.455 224.405,282.809 217.368,282.809         " /><polygon
       id="SVGID_13_"
       points="342.652,282.809 334.591,282.809 334.591,320.995 334.591,328.455 342.652,328.455            351.286,328.455 351.286,320.995 342.652,320.995         " /><polygon
       id="SVGID_15_"
       points="228.735,282.809 228.735,290.268 228.735,299.859 228.735,307.319 228.735,320.995            228.735,328.455 236.776,328.455 245.431,328.455 245.431,320.995 236.776,320.995 236.776,307.319 245.431,307.319            245.431,299.859 236.776,299.859 236.776,290.268 245.431,290.268 245.431,282.809 236.776,282.809         " /><polygon
       id="SVGID_17_"
       points="266.389,303.589 262.481,328.455 255.021,328.455 247.562,282.809 254.667,282.809            258.665,306.162 262.481,282.809 266.389,282.809 270.296,282.809 273.939,305.101 277.756,282.809 284.86,282.809            277.4,328.455 270.296,328.455         " /><path
       id="SVGID_19_"
       d="M369.491,318.776c0,1.911-1.552,3.463-3.464,3.463s-3.463-1.551-3.463-3.463v-35.967h-8.26v35.967           c0,6.474,5.248,11.722,11.723,11.722s11.723-5.248,11.723-11.722v-35.901h-8.259V318.776z" /><path
       id="SVGID_21_"
       d="M398.029,313.18l-0.476-0.459c4.271-2.485,7.503-7.098,7.503-14.594c0-4.665-1.445-8.412-4.298-11.14           c-4.387-4.196-10.368-4.212-11.425-4.179h-7.27h-0.088v45.646h7.424v-13.41h0.113l0.112-0.007           c0.243-0.016,0.487-0.047,0.731-0.07l7.238,13.487h9.059L398.029,313.18z M389.525,307.567v-17.3l0.043-0.002           c0.029,0.002,3.756-0.067,6.035,2.114c1.342,1.283,1.994,3.164,1.994,5.749C397.599,303.943,394.882,307.117,389.525,307.567z" /><path
       id="SVGID_23_"
       d="M326.621,303.515c1.871-1.944,3.175-4.621,3.175-8.251c0-7.566-5.466-12.455-13.925-12.455h-7.211           h-0.124v17.783v7.459v19.983l0.124,0.015v0.405h3.41c0.457,0.046,1.357,0.118,2.546,0.118c3.284,0,8.706-0.559,12.616-3.778           c2.623-2.161,4.15-5.206,4.418-8.808c0.416-5.641-1.602-9.087-3.368-10.986C327.755,304.435,327.195,303.946,326.621,303.515z            M315.996,290.269c6.339,0.047,6.34,3.767,6.34,4.995c0,4.32-4.922,5.155-6.34,5.305V290.269z M324.211,315.435           c-0.117,1.582-0.659,2.724-1.708,3.593c-1.663,1.377-4.301,1.892-6.507,2.036v-13.013h1.818c0.031,0,3.221,0.113,5.008,2.032           C323.919,311.263,324.387,313.062,324.211,315.435z" /><path
       id="SVGID_25_"
       d="M295.402,296.967l-0.09-0.146c-0.028-0.042-2.667-4.339-0.501-6.505           c2.749-2.646,6.731-0.319,8.343,0.285v-7.792c-0.976-0.377-8.318-3.368-13.769,2.083c-5.221,5.221-2.826,12.499-0.552,16.041           l6.807,11.462c0.037,0.046,3.655,4.733,1.542,7.37c-2.354,2.939-8.95,1.274-10.613,0.809l-0.331,7.838           c1.537,0.443,3.612,0.797,5.844,0.797c3.938,0,8.366-1.102,11.182-4.763c4.507-5.86,1.28-13.095-1.468-16.636L295.402,296.967z" /><linearGradient
       inkscape:collect="always"
       xlink:href="#XMLID_3_"
       id="linearGradient92"
       gradientUnits="userSpaceOnUse"
       gradientTransform="matrix(1,0,0,-1,84,588.6055)"
       x1="220.9995"
       y1="9.7212"
       x2="220.9995"
       y2="555.34027" /><linearGradient
       inkscape:collect="always"
       xlink:href="#XMLID_4_"
       id="linearGradient93"
       gradientUnits="userSpaceOnUse"
       gradientTransform="matrix(1,0,0,-1,84,588.6055)"
       x1="280.7598"
       y1="170.2749"
       x2="20.2687"
       y2="666.68762" /><linearGradient
       inkscape:collect="always"
       xlink:href="#XMLID_5_"
       id="linearGradient94"
       gradientUnits="userSpaceOnUse"
       gradientTransform="matrix(1,0,0,-1,84,588.6055)"
       x1="220.9995"
       y1="9.7212"
       x2="220.9995"
       y2="555.34027" /><linearGradient
       inkscape:collect="always"
       xlink:href="#XMLID_7_"
       id="linearGradient95"
       gradientUnits="userSpaceOnUse"
       gradientTransform="matrix(1,0,0,-1,84,588.6055)"
       x1="220.9995"
       y1="9.7212"
       x2="220.9995"
       y2="555.34027" /><linearGradient
       inkscape:collect="always"
       xlink:href="#XMLID_8_"
       id="linearGradient96"
       gradientUnits="userSpaceOnUse"
       gradientTransform="matrix(1,0,0,-1,84,588.6055)"
       x1="220.9995"
       y1="9.7212"
       x2="220.9995"
       y2="555.34027" /><linearGradient
       inkscape:collect="always"
       xlink:href="#XMLID_10_"
       id="linearGradient97"
       gradientUnits="userSpaceOnUse"
       gradientTransform="matrix(1,0,0,-1,84,588.6055)"
       x1="220.9995"
       y1="9.7212"
       x2="220.9995"
       y2="555.34027" /><linearGradient
       inkscape:collect="always"
       xlink:href="#XMLID_12_"
       id="linearGradient98"
       gradientUnits="userSpaceOnUse"
       gradientTransform="matrix(1,0,0,-1,84,588.6055)"
       x1="224.30521"
       y1="251.4478"
       x2="224.30521"
       y2="334.92529" /><linearGradient
       inkscape:collect="always"
       xlink:href="#XMLID_14_"
       id="linearGradient99"
       gradientUnits="userSpaceOnUse"
       gradientTransform="matrix(1,0,0,-1,84,588.6055)"
       x1="224.30521"
       y1="251.4478"
       x2="224.30521"
       y2="334.92529" /><linearGradient
       inkscape:collect="always"
       xlink:href="#XMLID_16_"
       id="linearGradient100"
       gradientUnits="userSpaceOnUse"
       gradientTransform="matrix(1,0,0,-1,84,588.6055)"
       x1="224.30521"
       y1="251.4478"
       x2="224.30521"
       y2="334.92529" /><linearGradient
       inkscape:collect="always"
       xlink:href="#XMLID_18_"
       id="linearGradient101"
       gradientUnits="userSpaceOnUse"
       gradientTransform="matrix(1,0,0,-1,84,588.6055)"
       x1="224.30521"
       y1="251.4478"
       x2="224.30521"
       y2="334.92529" /><linearGradient
       inkscape:collect="always"
       xlink:href="#XMLID_21_"
       id="linearGradient102"
       gradientUnits="userSpaceOnUse"
       gradientTransform="matrix(1,0,0,-1,84,588.6055)"
       x1="224.30521"
       y1="251.4478"
       x2="224.30521"
       y2="334.92529" /><linearGradient
       inkscape:collect="always"
       xlink:href="#XMLID_22_"
       id="linearGradient103"
       gradientUnits="userSpaceOnUse"
       gradientTransform="matrix(1,0,0,-1,84,588.6055)"
       x1="224.30521"
       y1="251.4478"
       x2="224.30521"
       y2="334.92529" /><linearGradient
       inkscape:collect="always"
       xlink:href="#XMLID_23_"
       id="linearGradient104"
       gradientUnits="userSpaceOnUse"
       gradientTransform="matrix(1,0,0,-1,84,588.6055)"
       x1="224.30521"
       y1="251.4478"
       x2="224.30521"
       y2="334.92529" /><linearGradient
       inkscape:collect="always"
       xlink:href="#XMLID_24_"
       id="linearGradient105"
       gradientUnits="userSpaceOnUse"
       gradientTransform="matrix(1,0,0,-1,84,588.6055)"
       x1="224.30521"
       y1="251.4478"
       x2="224.30521"
       y2="334.92529" /><linearGradient
       inkscape:collect="always"
       xlink:href="#XMLID_3_"
       id="linearGradient106"
       gradientUnits="userSpaceOnUse"
       gradientTransform="matrix(0.19060886,0,0,-0.19060886,29.875445,133.85283)"
       x1="220.9995"
       y1="9.7212"
       x2="220.9995"
       y2="555.34027" /><linearGradient
       inkscape:collect="always"
       xlink:href="#XMLID_4_"
       id="linearGradient107"
       gradientUnits="userSpaceOnUse"
       gradientTransform="matrix(1,0,0,-1,84,588.6055)"
       x1="280.7598"
       y1="170.2749"
       x2="20.2687"
       y2="666.68762" /><linearGradient
       inkscape:collect="always"
       xlink:href="#XMLID_5_"
       id="linearGradient108"
       gradientUnits="userSpaceOnUse"
       gradientTransform="matrix(1,0,0,-1,84,588.6055)"
       x1="220.9995"
       y1="9.7212"
       x2="220.9995"
       y2="555.34027" /><linearGradient
       inkscape:collect="always"
       xlink:href="#XMLID_7_"
       id="linearGradient109"
       gradientUnits="userSpaceOnUse"
       gradientTransform="matrix(1,0,0,-1,84,588.6055)"
       x1="220.9995"
       y1="9.7212"
       x2="220.9995"
       y2="555.34027" /><linearGradient
       inkscape:collect="always"
       xlink:href="#XMLID_8_"
       id="linearGradient110"
       gradientUnits="userSpaceOnUse"
       gradientTransform="matrix(1,0,0,-1,84,588.6055)"
       x1="220.9995"
       y1="9.7212"
       x2="220.9995"
       y2="555.34027" /><linearGradient
       inkscape:collect="always"
       xlink:href="#XMLID_10_"
       id="linearGradient111"
       gradientUnits="userSpaceOnUse"
       gradientTransform="matrix(1,0,0,-1,84,588.6055)"
       x1="220.9995"
       y1="9.7212"
       x2="220.9995"
       y2="555.34027" /><linearGradient
       inkscape:collect="always"
       xlink:href="#XMLID_12_"
       id="linearGradient112"
       gradientUnits="userSpaceOnUse"
       gradientTransform="matrix(1,0,0,-1,84,588.6055)"
       x1="224.30521"
       y1="251.4478"
       x2="224.30521"
       y2="334.92529" /><linearGradient
       inkscape:collect="always"
       xlink:href="#XMLID_14_"
       id="linearGradient113"
       gradientUnits="userSpaceOnUse"
       gradientTransform="matrix(1,0,0,-1,84,588.6055)"
       x1="224.30521"
       y1="251.4478"
       x2="224.30521"
       y2="334.92529" /><linearGradient
       inkscape:collect="always"
       xlink:href="#XMLID_16_"
       id="linearGradient114"
       gradientUnits="userSpaceOnUse"
       gradientTransform="matrix(1,0,0,-1,84,588.6055)"
       x1="224.30521"
       y1="251.4478"
       x2="224.30521"
       y2="334.92529" /><linearGradient
       inkscape:collect="always"
       xlink:href="#XMLID_18_"
       id="linearGradient115"
       gradientUnits="userSpaceOnUse"
       gradientTransform="matrix(1,0,0,-1,84,588.6055)"
       x1="224.30521"
       y1="251.4478"
       x2="224.30521"
       y2="334.92529" /><linearGradient
       inkscape:collect="always"
       xlink:href="#XMLID_21_"
       id="linearGradient116"
       gradientUnits="userSpaceOnUse"
       gradientTransform="matrix(1,0,0,-1,84,588.6055)"
       x1="224.30521"
       y1="251.4478"
       x2="224.30521"
       y2="334.92529" /><linearGradient
       inkscape:collect="always"
       xlink:href="#XMLID_22_"
       id="linearGradient117"
       gradientUnits="userSpaceOnUse"
       gradientTransform="matrix(1,0,0,-1,84,588.6055)"
       x1="224.30521"
       y1="251.4478"
       x2="224.30521"
       y2="334.92529" /><linearGradient
       inkscape:collect="always"
       xlink:href="#XMLID_23_"
       id="linearGradient118"
       gradientUnits="userSpaceOnUse"
       gradientTransform="matrix(1,0,0,-1,84,588.6055)"
       x1="224.30521"
       y1="251.4478"
       x2="224.30521"
       y2="334.92529" /><linearGradient
       inkscape:collect="always"
       xlink:href="#XMLID_24_"
       id="linearGradient119"
       gradientUnits="userSpaceOnUse"
       gradientTransform="matrix(1,0,0,-1,84,588.6055)"
       x1="224.30521"
       y1="251.4478"
       x2="224.30521"
       y2="334.92529" /><linearGradient
       inkscape:collect="always"
       xlink:href="#XMLID_3_"
       id="linearGradient120"
       gradientUnits="userSpaceOnUse"
       gradientTransform="matrix(0.19060886,0,0,-0.19060886,29.875447,133.85283)"
       x1="220.9995"
       y1="9.7212"
       x2="220.9995"
       y2="555.34027" /><linearGradient
       id="XMLID_3_"
       gradientUnits="userSpaceOnUse"
       x1="220.9995"
       y1="9.7212"
       x2="220.9995"
       y2="555.34027"
       gradientTransform="matrix(1,0,0,-1,84,588.6055)">&#10;    <stop
   offset="0"
   style="stop-color:#C35F28"
   id="stop1" />&#10;    <stop
   offset="1"
   style="stop-color:#E6A33F"
   id="stop2" />&#10;  </linearGradient><clipPath
       clipPathUnits="userSpaceOnUse"
       id="clipPath120"><rect
         style="display:inline;opacity:1;fill:#f1df8b;fill-opacity:1;stroke-width:4;stroke-linecap:square;stroke-linejoin:round;stroke-dasharray:8, 8;enable-background:new"
         id="rect120"
         width="104.00001"
         height="104.00001"
         x="20"
         y="28.000015"
         rx="16"
         ry="16"
         inkscape:label="rect1" /></clipPath><clipPath
       id="SVGID_2_-7">&#10;        <use
   xlink:href="#SVGID_1_"
   overflow="visible"
   id="use2-9" />&#10;      </clipPath></defs><sodipodi:namedview
     stroke="#ef2929"
     fill="#f57900"
     id="base"
     pagecolor="#ffffff"
     bordercolor="#666666"
     borderopacity="0.25490196"
     inkscape:pageopacity="0.0"
     inkscape:pageshadow="2"
     inkscape:zoom="1.4142136"
     inkscape:cx="207.18229"
     inkscape:cy="45.254834"
     inkscape:current-layer="layer5"
     showgrid="false"
     inkscape:grid-bbox="true"
     inkscape:document-units="px"
     inkscape:showpageshadow="false"
     inkscape:window-width="1920"
     inkscape:window-height="1011"
     inkscape:window-x="0"
     inkscape:window-y="0"
     width="400px"
     height="300px"
     inkscape:snap-nodes="true"
     inkscape:snap-bbox="true"
     objecttolerance="7"
     gridtolerance="12"
     guidetolerance="13"
     inkscape:window-maximized="1"
     inkscape:pagecheckerboard="false"
     showguides="false"
     inkscape:guide-bbox="true"
     inkscape:locked="false"
     inkscape:measure-start="0,0"
     inkscape:measure-end="0,0"
     inkscape:object-nodes="true"
     inkscape:bbox-nodes="true"
     inkscape:snap-global="true"
     inkscape:object-paths="true"
     inkscape:snap-intersection-paths="true"
     inkscape:snap-bbox-edge-midpoints="true"
     inkscape:snap-bbox-midpoints="true"
     showborder="true"
     inkscape:snap-center="true"
     inkscape:snap-object-midpoints="true"
     inkscape:snap-midpoints="true"
     inkscape:snap-smooth-nodes="true"
     inkscape:snap-text-baseline="true"
     borderlayer="true"
     inkscape:deskcolor="#d1d1d1"><inkscape:grid
       type="xygrid"
       id="grid5883"
       spacingx="2"
       spacingy="2"
       enabled="true"
       visible="false"
       empspacing="4"
       originx="8"
       originy="8"
       units="px" /><sodipodi:guide
       position="72,16"
       orientation="0,1"
       id="guide1073"
       inkscape:locked="false"
       inkscape:label=""
       inkscape:color="rgb(0,0,255)" /><sodipodi:guide
       position="20,72"
       orientation="1,0"
       id="guide1075"
       inkscape:locked="false"
       inkscape:label=""
       inkscape:color="rgb(0,0,255)" /><sodipodi:guide
       position="72,112"
       orientation="0,1"
       id="guide1099"
       inkscape:locked="false"
       inkscape:label=""
       inkscape:color="rgb(0,0,255)" /><sodipodi:guide
       position="72,136"
       orientation="0,1"
       id="guide993"
       inkscape:locked="false"
       inkscape:label=""
       inkscape:color="rgb(0,0,255)" /><sodipodi:guide
       position="112,72"
       orientation="1,0"
       id="guide995"
       inkscape:locked="false"
       inkscape:label=""
       inkscape:color="rgb(0,0,255)" /><sodipodi:guide
       position="8.0000001,72"
       orientation="1,0"
       id="guide867"
       inkscape:locked="false"
       inkscape:label=""
       inkscape:color="rgb(0,0,255)" /><sodipodi:guide
       position="128,72"
       orientation="1,0"
       id="guide869"
       inkscape:locked="false"
       inkscape:label=""
       inkscape:color="rgb(0,0,255)" /><sodipodi:guide
       position="72,124"
       orientation="0,1"
       id="guide871"
       inkscape:locked="false"
       inkscape:label=""
       inkscape:color="rgb(0,0,255)" /><inkscape:grid
       type="xygrid"
       id="grid873"
       spacingx="1"
       spacingy="1"
       empspacing="8"
       color="#000000"
       opacity="0.49019608"
       empcolor="#000000"
       empopacity="0.08627451"
       dotted="true"
       originx="8"
       originy="8"
       units="px"
       visible="false" /><sodipodi:guide
       position="32,72"
       orientation="1,0"
       id="guide877"
       inkscape:locked="false"
       inkscape:label=""
       inkscape:color="rgb(0,0,255)" /><sodipodi:guide
       position="124,72"
       orientation="1,0"
       id="guide879"
       inkscape:locked="false"
       inkscape:label=""
       inkscape:color="rgb(0,0,255)" /><sodipodi:guide
       position="72,128"
       orientation="0,1"
       id="guide881"
       inkscape:locked="false"
       inkscape:label=""
       inkscape:color="rgb(0,0,255)" /><sodipodi:guide
       position="72,20"
       orientation="0,1"
       id="guide883"
       inkscape:locked="false"
       inkscape:label=""
       inkscape:color="rgb(0,0,255)" /><sodipodi:guide
       position="16,72"
       orientation="1,0"
       id="guide885"
       inkscape:locked="false"
       inkscape:label=""
       inkscape:color="rgb(0,0,255)" /><sodipodi:guide
       position="136,72"
       orientation="1,0"
       id="guide887"
       inkscape:locked="false"
       inkscape:label=""
       inkscape:color="rgb(0,0,255)" /><sodipodi:guide
       position="72,8"
       orientation="0,1"
       id="guide897"
       inkscape:locked="false"
       inkscape:label=""
       inkscape:color="rgb(0,0,255)" /><sodipodi:guide
       position="72,32"
       orientation="0,1"
       id="guide899"
       inkscape:locked="false"
       inkscape:label=""
       inkscape:color="rgb(0,0,255)" /><sodipodi:guide
       position="264,264"
       orientation="-0.70710678,0.70710678"
       id="guide950"
       inkscape:locked="false"
       inkscape:label=""
       inkscape:color="rgb(0,0,255)" /><sodipodi:guide
       position="72,72"
       orientation="0.70710678,0.70710678"
       id="guide952"
       inkscape:locked="false"
       inkscape:label=""
       inkscape:color="rgb(0,0,255)" /></sodipodi:namedview><metadata
     id="metadata4"><rdf:RDF><cc:Work
         rdf:about=""><dc:title>Adwaita Icon Template</dc:title></cc:Work></rdf:RDF></metadata><g
     id="layer1"
     inkscape:label="App Icon"
     inkscape:groupmode="layer"
     style="display:inline"
     transform="translate(8,-156)"><g
       inkscape:groupmode="layer"
       id="layer4"
       inkscape:label="template"
       style="display:inline"
       sodipodi:insensitive="true"><rect
         inkscape:label="0"
         y="172"
         x="9.2651362e-08"
         height="128"
         width="128"
         id="hicolor"
         style="display:inline;overflow:visible;visibility:visible;fill:#f0f0f0;fill-opacity:0;fill-rule:nonzero;stroke:none;stroke-width:0.5;marker:none;enable-background:accumulate" /><rect
         style="display:inline;overflow:visible;visibility:visible;fill:#f0f0f0;fill-opacity:0;fill-rule:nonzero;stroke:none;stroke-width:0.5;marker:none;enable-background:accumulate"
         id="symbolic"
         width="16"
         height="16"
         x="160"
         y="172"
         inkscape:label="0" /></g><g
       inkscape:groupmode="layer"
       id="layer2"
       inkscape:label="baseplate"
       style="display:inline"
       sodipodi:insensitive="true"><rect
         style="display:inline;overflow:visible;visibility:visible;fill:#f0f0f0;fill-opacity:1;fill-rule:nonzero;stroke:none;stroke-width:0.5;marker:none;enable-background:accumulate"
         id="128"
         width="128"
         height="128"
         x="9.2651362e-08"
         y="172"
         inkscape:label="0" /><rect
         inkscape:label=""
         y="172"
         x="160"
         height="16"
         width="16"
         id="16"
         style="display:inline;overflow:visible;visibility:visible;fill:#f0f0f0;fill-opacity:1;fill-rule:nonzero;stroke:none;stroke-width:0.5;marker:none;enable-background:accumulate" /><text
         xml:space="preserve"
         style="font-style:normal;font-variant:normal;font-weight:bold;font-stretch:normal;font-size:4px;line-height:125%;font-family:Cantarell;-inkscape-font-specification:'Cantarell, Bold';text-align:start;writing-mode:lr-tb;text-anchor:start;display:inline;fill:#000000;fill-opacity:1;stroke:none;stroke-width:0.332649;enable-background:new"
         x="0"
         y="167"
         id="text863"
         inkscape:label="icon-name"><tspan
           style="font-size:4px;stroke-width:0.332649"
           sodipodi:role="line"
           id="tspan861"
           x="0"
           y="167">Hicolor</tspan></text><text
         inkscape:label="icon-name"
         id="text867"
         y="167"
         x="160"
         style="font-style:normal;font-variant:normal;font-weight:bold;font-stretch:normal;font-size:4px;line-height:125%;font-family:Cantarell;-inkscape-font-specification:'Cantarell, Bold';text-align:start;writing-mode:lr-tb;text-anchor:start;display:inline;fill:#000000;fill-opacity:1;stroke:none;stroke-width:0.332649;enable-background:new"
         xml:space="preserve"><tspan
           y="167"
           x="160"
           id="tspan865"
           sodipodi:role="line"
           style="font-size:4px;stroke-width:0.332649">Symbolic</tspan></text></g><g
       inkscape:groupmode="layer"
       id="layer5"
       inkscape:label="icon"
       style="display:inline;enable-background:new"
       transform="translate(-8,156)"><circle
         id="circle119"
         fill="url(#XMLID_3_)"
         style="fill:url(#linearGradient120);stroke-width:0.190609"
         r="80.000015"
         cy="80.000015"
         cx="72"
         clip-path="url(#clipPath120)" /><circle
         id="XMLID_45_"
         fill="url(#XMLID_3_)"
         cx="72"
         cy="80.000015"
         r="52.000004"
         style="fill:url(#linearGradient106);stroke-width:0.190609" /><g
         id="g9"
         transform="matrix(0.19060886,0,0,0.19060886,13.864301,21.659409)">&#10;    <g
   id="g8">&#10;      <defs
   id="defs2" />&#10;      <clipPath
   id="SVGID_2_">&#10;        <use
   xlink:href="#SVGID_1_"
   overflow="visible"
   id="use2" />&#10;      </clipPath>&#10;      &#10;        <linearGradient
   id="XMLID_4_"
   gradientUnits="userSpaceOnUse"
   x1="280.7598"
   y1="170.2749"
   x2="20.2687"
   y2="666.68762"
   gradientTransform="matrix(1,0,0,-1,84,588.6055)">&#10;        <stop
   offset="0"
   style="stop-color:#EEDA5B"
   id="stop3" />&#10;        <stop
   offset="0.2268"
   style="stop-color:#F0DE81"
   id="stop4" />&#10;        <stop
   offset="0.4536"
   style="stop-color:#F2E19C"
   id="stop5" />&#10;        <stop
   offset="0.6644"
   style="stop-color:#F3E3B0"
   id="stop6" />&#10;        <stop
   offset="0.8528"
   style="stop-color:#F4E5BC"
   id="stop7" />&#10;        <stop
   offset="1"
   style="stop-color:#F4E5C0"
   id="stop8" />&#10;      </linearGradient>&#10;      <circle
   id="XMLID_44_"
   clip-path="url(#SVGID_2_)"
   fill="url(#XMLID_4_)"
   cx="306.06299"
   cy="306.47501"
   r="273.20901"
   style="fill:url(#linearGradient107)" />&#10;    </g>&#10;  </g><g
         id="g11"
         transform="matrix(0.19060886,0,0,0.19060886,13.864301,21.659409)">&#10;    <g
   id="g10-9">&#10;      <defs
   id="defs9" />&#10;      <clipPath
   id="SVGID_4_">&#10;        <use
   xlink:href="#SVGID_3_"
   overflow="visible"
   id="use9" />&#10;      </clipPath>&#10;      &#10;        <linearGradient
   id="XMLID_5_"
   gradientUnits="userSpaceOnUse"
   x1="220.9995"
   y1="9.7212"
   x2="220.9995"
   y2="555.34027"
   gradientTransform="matrix(1,0,0,-1,84,588.6055)">&#10;        <stop
   offset="0"
   style="stop-color:#C35F28"
   id="stop9" />&#10;        <stop
   offset="1"
   style="stop-color:#E6A33F"
   id="stop10" />&#10;      </linearGradient>&#10;      <circle
   id="XMLID_42_"
   clip-path="url(#SVGID_4_)"
   fill="url(#XMLID_5_)"
   cx="305"
   cy="306.07501"
   r="272.81"
   style="fill:url(#linearGradient108)" />&#10;    </g>&#10;  </g><g
         id="g13"
         transform="matrix(0.19060886,0,0,0.19060886,13.864301,21.659409)">&#10;    <g
   id="g12">&#10;      <defs
   id="defs11" />&#10;      <clipPath
   id="SVGID_6_">&#10;        <use
   xlink:href="#SVGID_5_"
   overflow="visible"
   id="use11" />&#10;      </clipPath>&#10;      &#10;        <linearGradient
   id="XMLID_7_"
   gradientUnits="userSpaceOnUse"
   x1="220.9995"
   y1="9.7212"
   x2="220.9995"
   y2="555.34027"
   gradientTransform="matrix(1,0,0,-1,84,588.6055)">&#10;        <stop
   offset="0"
   style="stop-color:#C35F28"
   id="stop11" />&#10;        <stop
   offset="1"
   style="stop-color:#E6A33F"
   id="stop12" />&#10;      </linearGradient>&#10;      <circle
   id="XMLID_39_"
   clip-path="url(#SVGID_6_)"
   fill="url(#XMLID_7_)"
   cx="305"
   cy="306.07501"
   r="272.81"
   style="fill:url(#linearGradient109)" />&#10;    </g>&#10;  </g><g
         id="g15"
         transform="matrix(0.19060886,0,0,0.19060886,13.864301,21.659409)">&#10;    <g
   id="g14">&#10;      <defs
   id="defs13" />&#10;      <clipPath
   id="SVGID_8_">&#10;        <use
   xlink:href="#SVGID_7_"
   overflow="visible"
   id="use13" />&#10;      </clipPath>&#10;      &#10;        <linearGradient
   id="XMLID_8_"
   gradientUnits="userSpaceOnUse"
   x1="220.9995"
   y1="9.7212"
   x2="220.9995"
   y2="555.34027"
   gradientTransform="matrix(1,0,0,-1,84,588.6055)">&#10;        <stop
   offset="0"
   style="stop-color:#C35F28"
   id="stop13" />&#10;        <stop
   offset="1"
   style="stop-color:#E6A33F"
   id="stop14" />&#10;      </linearGradient>&#10;      <circle
   id="XMLID_36_"
   clip-path="url(#SVGID_8_)"
   fill="url(#XMLID_8_)"
   cx="305"
   cy="306.07501"
   r="272.81"
   style="fill:url(#linearGradient110)" />&#10;    </g>&#10;  </g><g
         id="g17"
         transform="matrix(0.19060886,0,0,0.19060886,13.864301,21.659409)">&#10;    <g
   id="g16">&#10;      <defs
   id="defs15" />&#10;      <clipPath
   id="SVGID_10_">&#10;        <use
   xlink:href="#SVGID_9_"
   overflow="visible"
   id="use15" />&#10;      </clipPath>&#10;      &#10;        <linearGradient
   id="XMLID_10_"
   gradientUnits="userSpaceOnUse"
   x1="220.9995"
   y1="9.7212"
   x2="220.9995"
   y2="555.34027"
   gradientTransform="matrix(1,0,0,-1,84,588.6055)">&#10;        <stop
   offset="0"
   style="stop-color:#C35F28"
   id="stop15" />&#10;        <stop
   offset="1"
   style="stop-color:#E6A33F"
   id="stop16" />&#10;      </linearGradient>&#10;      <circle
   id="XMLID_33_"
   clip-path="url(#SVGID_10_)"
   fill="url(#XMLID_10_)"
   cx="305"
   cy="306.07501"
   r="272.81"
   style="fill:url(#linearGradient111)" />&#10;    </g>&#10;  </g><g
         display="none"
         opacity="0.15"
         id="g19"
         transform="matrix(0.19060886,0,0,0.19060886,13.864301,21.659409)">&#10;  <polygon
   id="XMLID_30_"
   display="inline"
   fill="#161416"
   points="226.304,285.484 219.267,285.484 219.267,311.035 210.319,285.484 203.282,285.484 203.282,331.129 210.319,331.129 210.319,305.579 219.267,331.129 226.304,331.129 " />&#10;  <polygon
   id="XMLID_29_"
   display="inline"
   fill="#161416"
   points="344.552,285.484 336.49,285.484 336.49,323.669 336.49,331.129 344.552,331.129 353.186,331.129 353.186,323.669 344.552,323.669 " />&#10;  <polygon
   id="XMLID_28_"
   display="inline"
   fill="#161416"
   points="247.33,323.669 238.675,323.669 238.675,309.994 247.33,309.994 247.33,302.534 238.675,302.534 238.675,292.943 247.33,292.943 247.33,285.484 238.675,285.484 230.634,285.484 230.634,292.943 230.634,302.534 230.634,309.994 230.634,323.669 230.634,331.129 238.675,331.129 247.33,331.129 " />&#10;  <polygon
   id="XMLID_27_"
   display="inline"
   fill="#161416"
   points="256.921,331.129 264.38,331.129 268.288,306.264 272.195,331.129 279.3,331.129 286.759,285.484 279.655,285.484 275.838,307.776 272.195,285.484 268.288,285.484 264.38,285.484 260.563,308.837 256.565,285.484 249.461,285.484 " />&#10;  <path
   id="XMLID_26_"
   display="inline"
   fill="#161416"
   d="m 371.391,321.451 c 0,1.912 -1.551,3.463 -3.464,3.463 -1.911,0 -3.463,-1.551 -3.463,-3.463 v -35.967 h -8.259 v 35.967 c 0,6.474 5.248,11.722 11.722,11.722 6.476,0 11.724,-5.248 11.724,-11.722 v -35.9 h -8.26 z" />&#10;  <path
   display="inline"
   fill="#161416"
   d="m 399.929,315.855 -0.476,-0.459 c 4.271,-2.486 7.504,-7.099 7.504,-14.593 0,-4.665 -1.446,-8.413 -4.298,-11.14 -4.388,-4.196 -10.368,-4.212 -11.425,-4.179 h -7.271 -0.088 v 45.646 h 7.424 v -13.41 h 0.113 l 0.112,-0.008 c 0.244,-0.015 0.488,-0.047 0.732,-0.07 l 7.237,13.487 h 9.059 z m -8.504,-5.613 v -17.3 l 0.043,-0.002 c 0.03,0.002 3.757,-0.067 6.036,2.114 1.341,1.283 1.993,3.164 1.993,5.749 0,5.815 -2.716,8.989 -8.072,9.439 z"
   id="path18" />&#10;  <path
   display="inline"
   fill="#161416"
   d="m 328.52,306.19 c 1.873,-1.944 3.176,-4.623 3.176,-8.252 0,-7.566 -5.467,-12.455 -13.924,-12.455 h -7.213 -0.123 v 17.783 7.458 19.983 l 0.123,0.016 v 0.404 h 3.41 c 0.458,0.046 1.359,0.118 2.547,0.118 3.285,0 8.707,-0.559 12.617,-3.778 2.622,-2.16 4.15,-5.206 4.416,-8.808 0.418,-5.641 -1.602,-9.087 -3.367,-10.985 -0.528,-0.564 -1.086,-1.053 -1.662,-1.484 z m -10.625,-13.246 c 6.34,0.048 6.342,3.767 6.342,4.995 0,4.32 -4.922,5.155 -6.342,5.306 z m 8.214,25.166 c -0.116,1.582 -0.659,2.723 -1.707,3.592 -1.664,1.377 -4.301,1.892 -6.508,2.036 v -13.013 h 1.818 c 0.031,0 3.221,0.113 5.007,2.033 1.099,1.18 1.567,2.981 1.39,5.352 z"
   id="path19" />&#10;  <path
   id="XMLID_20_"
   display="inline"
   fill="#161416"
   d="m 297.302,299.642 -0.091,-0.146 c -0.027,-0.042 -2.667,-4.34 -0.501,-6.505 2.749,-2.646 6.731,-0.319 8.344,0.285 v -7.792 c -0.976,-0.377 -8.319,-3.368 -13.769,2.083 -5.221,5.221 -2.826,12.5 -0.552,16.041 l 6.807,11.461 c 0.037,0.046 3.654,4.734 1.542,7.372 -2.354,2.938 -8.95,1.272 -10.613,0.808 l -0.331,7.837 c 1.537,0.443 3.612,0.797 5.844,0.797 3.938,0 8.365,-1.102 11.182,-4.763 4.507,-5.86 1.28,-13.095 -1.467,-16.636 z" />&#10;</g><g
         display="none"
         id="g44"
         transform="matrix(0.19060886,0,0,0.19060886,13.864301,21.659409)">&#10;  <g
   display="inline"
   id="g22">&#10;    <g
   id="g21">&#10;      <defs
   id="defs19" />&#10;      <clipPath
   id="SVGID_12_">&#10;        <use
   xlink:href="#SVGID_11_"
   overflow="visible"
   id="use19" />&#10;      </clipPath>&#10;      &#10;        <linearGradient
   id="XMLID_12_"
   gradientUnits="userSpaceOnUse"
   x1="224.30521"
   y1="251.4478"
   x2="224.30521"
   y2="334.92529"
   gradientTransform="matrix(1,0,0,-1,84,588.6055)">&#10;        <stop
   offset="0"
   style="stop-color:#16234B"
   id="stop19" />&#10;        <stop
   offset="0.638"
   style="stop-color:#163964"
   id="stop20" />&#10;        <stop
   offset="1"
   style="stop-color:#12436F"
   id="stop21" />&#10;      </linearGradient>&#10;      &#10;        <rect
   id="XMLID_19_"
   x="178.472"
   y="253.67999"
   clip-path="url(#SVGID_12_)"
   fill="url(#XMLID_12_)"
   width="259.66599"
   height="83.477997"
   style="fill:url(#linearGradient112)" />&#10;    </g>&#10;  </g>&#10;  <g
   display="inline"
   id="g25">&#10;    <g
   id="g24">&#10;      <defs
   id="defs22" />&#10;      <clipPath
   id="SVGID_14_">&#10;        <use
   xlink:href="#SVGID_13_"
   overflow="visible"
   id="use22" />&#10;      </clipPath>&#10;      &#10;        <linearGradient
   id="XMLID_14_"
   gradientUnits="userSpaceOnUse"
   x1="224.30521"
   y1="251.4478"
   x2="224.30521"
   y2="334.92529"
   gradientTransform="matrix(1,0,0,-1,84,588.6055)">&#10;        <stop
   offset="0"
   style="stop-color:#16234B"
   id="stop22" />&#10;        <stop
   offset="0.638"
   style="stop-color:#163964"
   id="stop23" />&#10;        <stop
   offset="1"
   style="stop-color:#12436F"
   id="stop24" />&#10;      </linearGradient>&#10;      &#10;        <rect
   id="XMLID_17_"
   x="178.472"
   y="253.67999"
   clip-path="url(#SVGID_14_)"
   fill="url(#XMLID_14_)"
   width="259.66599"
   height="83.477997"
   style="fill:url(#linearGradient113)" />&#10;    </g>&#10;  </g>&#10;  <g
   display="inline"
   id="g28">&#10;    <g
   id="g27">&#10;      <defs
   id="defs25" />&#10;      <clipPath
   id="SVGID_16_">&#10;        <use
   xlink:href="#SVGID_15_"
   overflow="visible"
   id="use25" />&#10;      </clipPath>&#10;      &#10;        <linearGradient
   id="XMLID_16_"
   gradientUnits="userSpaceOnUse"
   x1="224.30521"
   y1="251.4478"
   x2="224.30521"
   y2="334.92529"
   gradientTransform="matrix(1,0,0,-1,84,588.6055)">&#10;        <stop
   offset="0"
   style="stop-color:#16234B"
   id="stop25" />&#10;        <stop
   offset="0.638"
   style="stop-color:#163964"
   id="stop26" />&#10;        <stop
   offset="1"
   style="stop-color:#12436F"
   id="stop27" />&#10;      </linearGradient>&#10;      &#10;        <rect
   id="XMLID_15_"
   x="178.472"
   y="253.67999"
   clip-path="url(#SVGID_16_)"
   fill="url(#XMLID_16_)"
   width="259.66599"
   height="83.477997"
   style="fill:url(#linearGradient114)" />&#10;    </g>&#10;  </g>&#10;  <g
   display="inline"
   id="g31">&#10;    <g
   id="g30">&#10;      <defs
   id="defs28" />&#10;      <clipPath
   id="SVGID_18_">&#10;        <use
   xlink:href="#SVGID_17_"
   overflow="visible"
   id="use28" />&#10;      </clipPath>&#10;      &#10;        <linearGradient
   id="XMLID_18_"
   gradientUnits="userSpaceOnUse"
   x1="224.30521"
   y1="251.4478"
   x2="224.30521"
   y2="334.92529"
   gradientTransform="matrix(1,0,0,-1,84,588.6055)">&#10;        <stop
   offset="0"
   style="stop-color:#16234B"
   id="stop28" />&#10;        <stop
   offset="0.638"
   style="stop-color:#163964"
   id="stop29" />&#10;        <stop
   offset="1"
   style="stop-color:#12436F"
   id="stop30" />&#10;      </linearGradient>&#10;      &#10;        <rect
   id="XMLID_13_"
   x="178.472"
   y="253.67999"
   clip-path="url(#SVGID_18_)"
   fill="url(#XMLID_18_)"
   width="259.66599"
   height="83.477997"
   style="fill:url(#linearGradient115)" />&#10;    </g>&#10;  </g>&#10;  <g
   display="inline"
   id="g34">&#10;    <g
   id="g33">&#10;      <defs
   id="defs31" />&#10;      <clipPath
   id="SVGID_20_">&#10;        <use
   xlink:href="#SVGID_19_"
   overflow="visible"
   id="use31" />&#10;      </clipPath>&#10;      &#10;        <linearGradient
   id="XMLID_21_"
   gradientUnits="userSpaceOnUse"
   x1="224.30521"
   y1="251.4478"
   x2="224.30521"
   y2="334.92529"
   gradientTransform="matrix(1,0,0,-1,84,588.6055)">&#10;        <stop
   offset="0"
   style="stop-color:#16234B"
   id="stop31" />&#10;        <stop
   offset="0.638"
   style="stop-color:#163964"
   id="stop32" />&#10;        <stop
   offset="1"
   style="stop-color:#12436F"
   id="stop33" />&#10;      </linearGradient>&#10;      &#10;        <rect
   id="XMLID_11_"
   x="178.472"
   y="253.67999"
   clip-path="url(#SVGID_20_)"
   fill="url(#XMLID_21_)"
   width="259.66599"
   height="83.477997"
   style="fill:url(#linearGradient116)" />&#10;    </g>&#10;  </g>&#10;  <g
   display="inline"
   id="g37">&#10;    <g
   id="g36">&#10;      <defs
   id="defs34" />&#10;      <clipPath
   id="SVGID_22_">&#10;        <use
   xlink:href="#SVGID_21_"
   overflow="visible"
   id="use34" />&#10;      </clipPath>&#10;      &#10;        <linearGradient
   id="XMLID_22_"
   gradientUnits="userSpaceOnUse"
   x1="224.30521"
   y1="251.4478"
   x2="224.30521"
   y2="334.92529"
   gradientTransform="matrix(1,0,0,-1,84,588.6055)">&#10;        <stop
   offset="0"
   style="stop-color:#16234B"
   id="stop34" />&#10;        <stop
   offset="0.638"
   style="stop-color:#163964"
   id="stop35" />&#10;        <stop
   offset="1"
   style="stop-color:#12436F"
   id="stop36" />&#10;      </linearGradient>&#10;      &#10;        <rect
   id="XMLID_9_"
   x="178.472"
   y="253.67999"
   clip-path="url(#SVGID_22_)"
   fill="url(#XMLID_22_)"
   width="259.66599"
   height="83.477997"
   style="fill:url(#linearGradient117)" />&#10;    </g>&#10;  </g>&#10;  <g
   display="inline"
   id="g40">&#10;    <g
   id="g39">&#10;      <defs
   id="defs37" />&#10;      <clipPath
   id="SVGID_24_">&#10;        <use
   xlink:href="#SVGID_23_"
   overflow="visible"
   id="use37" />&#10;      </clipPath>&#10;      &#10;        <linearGradient
   id="XMLID_23_"
   gradientUnits="userSpaceOnUse"
   x1="224.30521"
   y1="251.4478"
   x2="224.30521"
   y2="334.92529"
   gradientTransform="matrix(1,0,0,-1,84,588.6055)">&#10;        <stop
   offset="0"
   style="stop-color:#16234B"
   id="stop37" />&#10;        <stop
   offset="0.638"
   style="stop-color:#163964"
   id="stop38" />&#10;        <stop
   offset="1"
   style="stop-color:#12436F"
   id="stop39" />&#10;      </linearGradient>&#10;      &#10;        <rect
   id="XMLID_6_"
   x="178.472"
   y="253.67999"
   clip-path="url(#SVGID_24_)"
   fill="url(#XMLID_23_)"
   width="259.66599"
   height="83.477997"
   style="fill:url(#linearGradient118)" />&#10;    </g>&#10;  </g>&#10;  <g
   display="inline"
   id="g43">&#10;    <g
   id="g42">&#10;      <defs
   id="defs40" />&#10;      <clipPath
   id="SVGID_26_">&#10;        <use
   xlink:href="#SVGID_25_"
   overflow="visible"
   id="use40" />&#10;      </clipPath>&#10;      &#10;        <linearGradient
   id="XMLID_24_"
   gradientUnits="userSpaceOnUse"
   x1="224.30521"
   y1="251.4478"
   x2="224.30521"
   y2="334.92529"
   gradientTransform="matrix(1,0,0,-1,84,588.6055)">&#10;        <stop
   offset="0"
   style="stop-color:#16234B"
   id="stop40" />&#10;        <stop
   offset="0.638"
   style="stop-color:#163964"
   id="stop41" />&#10;        <stop
   offset="1"
   style="stop-color:#12436F"
   id="stop42" />&#10;      </linearGradient>&#10;      &#10;        <rect
   id="XMLID_2_"
   x="178.472"
   y="253.67999"
   clip-path="url(#SVGID_26_)"
   fill="url(#XMLID_24_)"
   width="259.66599"
   height="83.477997"
   style="fill:url(#linearGradient119)" />&#10;    </g>&#10;  </g>&#10;</g><rect
         style="display:inline;opacity:1;fill:#f1df8b;fill-opacity:1;stroke-width:4;stroke-linecap:square;stroke-linejoin:round;stroke-dasharray:8, 8;enable-background:new"
         id="rect23"
         width="104.00001"
         height="104.00001"
         x="-195.53717"
         y="28.000015"
         rx="16"
         ry="16"
         inkscape:label="rect1" /><g
         id="g92"
         transform="matrix(0.16666667,0,0,0.16666667,-194.3705,28.987516)"><g
           id="g60">&#10;  &#10;    <linearGradient
   id="linearGradient44"
   gradientUnits="userSpaceOnUse"
   x1="220.9995"
   y1="9.7212"
   x2="220.9995"
   y2="555.34027"
   gradientTransform="matrix(1,0,0,-1,84,588.6055)">&#10;    <stop
   offset="0"
   style="stop-color:#C35F28"
   id="stop43" />&#10;    <stop
   offset="1"
   style="stop-color:#E6A33F"
   id="stop44" />&#10;  </linearGradient>&#10;  <circle
   id="circle44"
   fill="url(#XMLID_3_)"
   cx="305"
   cy="306.07501"
   r="272.81"
   style="fill:url(#linearGradient92)" />&#10;  <g
   id="g51">&#10;    <g
   id="g50">&#10;      <defs
   id="defs44" />&#10;      <clipPath
   id="clipPath44">&#10;        <use
   xlink:href="#SVGID_1_"
   overflow="visible"
   id="use44" />&#10;      </clipPath>&#10;      &#10;        <linearGradient
   id="linearGradient50"
   gradientUnits="userSpaceOnUse"
   x1="280.7598"
   y1="170.2749"
   x2="20.2687"
   y2="666.68762"
   gradientTransform="matrix(1,0,0,-1,84,588.6055)">&#10;        <stop
   offset="0"
   style="stop-color:#EEDA5B"
   id="stop45" />&#10;        <stop
   offset="0.2268"
   style="stop-color:#F0DE81"
   id="stop46" />&#10;        <stop
   offset="0.4536"
   style="stop-color:#F2E19C"
   id="stop47" />&#10;        <stop
   offset="0.6644"
   style="stop-color:#F3E3B0"
   id="stop48" />&#10;        <stop
   offset="0.8528"
   style="stop-color:#F4E5BC"
   id="stop49" />&#10;        <stop
   offset="1"
   style="stop-color:#F4E5C0"
   id="stop50" />&#10;      </linearGradient>&#10;      <circle
   id="circle50"
   clip-path="url(#SVGID_2_)"
   fill="url(#XMLID_4_)"
   cx="306.06299"
   cy="306.47501"
   r="273.20901"
   style="fill:url(#linearGradient93)" />&#10;    </g>&#10;  </g>&#10;  <g
   id="g53">&#10;    <g
   id="g52">&#10;      <defs
   id="defs51" />&#10;      <clipPath
   id="clipPath51">&#10;        <use
   xlink:href="#SVGID_3_"
   overflow="visible"
   id="use51" />&#10;      </clipPath>&#10;      &#10;        <linearGradient
   id="linearGradient52"
   gradientUnits="userSpaceOnUse"
   x1="220.9995"
   y1="9.7212"
   x2="220.9995"
   y2="555.34027"
   gradientTransform="matrix(1,0,0,-1,84,588.6055)">&#10;        <stop
   offset="0"
   style="stop-color:#C35F28"
   id="stop51" />&#10;        <stop
   offset="1"
   style="stop-color:#E6A33F"
   id="stop52" />&#10;      </linearGradient>&#10;      <circle
   id="circle52"
   clip-path="url(#SVGID_4_)"
   fill="url(#XMLID_5_)"
   cx="305"
   cy="306.07501"
   r="272.81"
   style="fill:url(#linearGradient94)" />&#10;    </g>&#10;  </g>&#10;  <g
   id="g55">&#10;    <g
   id="g54">&#10;      <defs
   id="defs53" />&#10;      <clipPath
   id="clipPath53">&#10;        <use
   xlink:href="#SVGID_5_"
   overflow="visible"
   id="use53" />&#10;      </clipPath>&#10;      &#10;        <linearGradient
   id="linearGradient54"
   gradientUnits="userSpaceOnUse"
   x1="220.9995"
   y1="9.7212"
   x2="220.9995"
   y2="555.34027"
   gradientTransform="matrix(1,0,0,-1,84,588.6055)">&#10;        <stop
   offset="0"
   style="stop-color:#C35F28"
   id="stop53" />&#10;        <stop
   offset="1"
   style="stop-color:#E6A33F"
   id="stop54" />&#10;      </linearGradient>&#10;      <circle
   id="circle54"
   clip-path="url(#SVGID_6_)"
   fill="url(#XMLID_7_)"
   cx="305"
   cy="306.07501"
   r="272.81"
   style="fill:url(#linearGradient95)" />&#10;    </g>&#10;  </g>&#10;  <g
   id="g57">&#10;    <g
   id="g56">&#10;      <defs
   id="defs55" />&#10;      <clipPath
   id="clipPath55">&#10;        <use
   xlink:href="#SVGID_7_"
   overflow="visible"
   id="use55" />&#10;      </clipPath>&#10;      &#10;        <linearGradient
   id="linearGradient56"
   gradientUnits="userSpaceOnUse"
   x1="220.9995"
   y1="9.7212"
   x2="220.9995"
   y2="555.34027"
   gradientTransform="matrix(1,0,0,-1,84,588.6055)">&#10;        <stop
   offset="0"
   style="stop-color:#C35F28"
   id="stop55" />&#10;        <stop
   offset="1"
   style="stop-color:#E6A33F"
   id="stop56" />&#10;      </linearGradient>&#10;      <circle
   id="circle56"
   clip-path="url(#SVGID_8_)"
   fill="url(#XMLID_8_)"
   cx="305"
   cy="306.07501"
   r="272.81"
   style="fill:url(#linearGradient96)" />&#10;    </g>&#10;  </g>&#10;  <g
   id="g59">&#10;    <g
   id="g58">&#10;      <defs
   id="defs57" />&#10;      <clipPath
   id="clipPath57">&#10;        <use
   xlink:href="#SVGID_9_"
   overflow="visible"
   id="use57" />&#10;      </clipPath>&#10;      &#10;        <linearGradient
   id="linearGradient58"
   gradientUnits="userSpaceOnUse"
   x1="220.9995"
   y1="9.7212"
   x2="220.9995"
   y2="555.34027"
   gradientTransform="matrix(1,0,0,-1,84,588.6055)">&#10;        <stop
   offset="0"
   style="stop-color:#C35F28"
   id="stop57" />&#10;        <stop
   offset="1"
   style="stop-color:#E6A33F"
   id="stop58" />&#10;      </linearGradient>&#10;      <circle
   id="circle58"
   clip-path="url(#SVGID_10_)"
   fill="url(#XMLID_10_)"
   cx="305"
   cy="306.07501"
   r="272.81"
   style="fill:url(#linearGradient97)" />&#10;    </g>&#10;  </g>&#10;</g><g
           display="none"
           opacity="0.15"
           id="g66">&#10;  <polygon
   id="polygon60"
   display="inline"
   fill="#161416"
   points="203.282,285.484 203.282,331.129 210.319,331.129 210.319,305.579 219.267,331.129 226.304,331.129 226.304,285.484 219.267,285.484 219.267,311.035 210.319,285.484 " />&#10;  <polygon
   id="polygon61"
   display="inline"
   fill="#161416"
   points="344.552,331.129 353.186,331.129 353.186,323.669 344.552,323.669 344.552,285.484 336.49,285.484 336.49,323.669 336.49,331.129 " />&#10;  <polygon
   id="polygon62"
   display="inline"
   fill="#161416"
   points="247.33,285.484 238.675,285.484 230.634,285.484 230.634,292.943 230.634,302.534 230.634,309.994 230.634,323.669 230.634,331.129 238.675,331.129 247.33,331.129 247.33,323.669 238.675,323.669 238.675,309.994 247.33,309.994 247.33,302.534 238.675,302.534 238.675,292.943 247.33,292.943 " />&#10;  <polygon
   id="polygon63"
   display="inline"
   fill="#161416"
   points="268.288,306.264 272.195,331.129 279.3,331.129 286.759,285.484 279.655,285.484 275.838,307.776 272.195,285.484 268.288,285.484 264.38,285.484 260.563,308.837 256.565,285.484 249.461,285.484 256.921,331.129 264.38,331.129 " />&#10;  <path
   id="path63"
   display="inline"
   fill="#161416"
   d="m 371.391,321.451 c 0,1.912 -1.551,3.463 -3.464,3.463 -1.911,0 -3.463,-1.551 -3.463,-3.463 v -35.967 h -8.259 v 35.967 c 0,6.474 5.248,11.722 11.722,11.722 6.476,0 11.724,-5.248 11.724,-11.722 v -35.9 h -8.26 z" />&#10;  <path
   display="inline"
   fill="#161416"
   d="m 399.929,315.855 -0.476,-0.459 c 4.271,-2.486 7.504,-7.099 7.504,-14.593 0,-4.665 -1.446,-8.413 -4.298,-11.14 -4.388,-4.196 -10.368,-4.212 -11.425,-4.179 h -7.271 -0.088 v 45.646 h 7.424 v -13.41 h 0.113 l 0.112,-0.008 c 0.244,-0.015 0.488,-0.047 0.732,-0.07 l 7.237,13.487 h 9.059 z m -8.504,-5.613 v -17.3 l 0.043,-0.002 c 0.03,0.002 3.757,-0.067 6.036,2.114 1.341,1.283 1.993,3.164 1.993,5.749 0,5.815 -2.716,8.989 -8.072,9.439 z"
   id="path64" />&#10;  <path
   display="inline"
   fill="#161416"
   d="m 328.52,306.19 c 1.873,-1.944 3.176,-4.623 3.176,-8.252 0,-7.566 -5.467,-12.455 -13.924,-12.455 h -7.213 -0.123 v 17.783 7.458 19.983 l 0.123,0.016 v 0.404 h 3.41 c 0.458,0.046 1.359,0.118 2.547,0.118 3.285,0 8.707,-0.559 12.617,-3.778 2.622,-2.16 4.15,-5.206 4.416,-8.808 0.418,-5.641 -1.602,-9.087 -3.367,-10.985 -0.528,-0.564 -1.086,-1.053 -1.662,-1.484 z m -10.625,-13.246 c 6.34,0.048 6.342,3.767 6.342,4.995 0,4.32 -4.922,5.155 -6.342,5.306 z m 8.214,25.166 c -0.116,1.582 -0.659,2.723 -1.707,3.592 -1.664,1.377 -4.301,1.892 -6.508,2.036 v -13.013 h 1.818 c 0.031,0 3.221,0.113 5.007,2.033 1.099,1.18 1.567,2.981 1.39,5.352 z"
   id="path65" />&#10;  <path
   id="path66"
   display="inline"
   fill="#161416"
   d="m 297.302,299.642 -0.091,-0.146 c -0.027,-0.042 -2.667,-4.34 -0.501,-6.505 2.749,-2.646 6.731,-0.319 8.344,0.285 v -7.792 c -0.976,-0.377 -8.319,-3.368 -13.769,2.083 -5.221,5.221 -2.826,12.5 -0.552,16.041 l 6.807,11.461 c 0.037,0.046 3.654,4.734 1.542,7.372 -2.354,2.938 -8.95,1.272 -10.613,0.808 l -0.331,7.837 c 1.537,0.443 3.612,0.797 5.844,0.797 3.938,0 8.365,-1.102 11.182,-4.763 4.507,-5.86 1.28,-13.095 -1.467,-16.636 z" />&#10;</g><g
           display="none"
           id="g91">&#10;  <g
   display="inline"
   id="g69">&#10;    <g
   id="g68">&#10;      <defs
   id="defs66" />&#10;      <clipPath
   id="clipPath66">&#10;        <use
   xlink:href="#SVGID_11_"
   overflow="visible"
   id="use66" />&#10;      </clipPath>&#10;      &#10;        <linearGradient
   id="linearGradient68"
   gradientUnits="userSpaceOnUse"
   x1="224.30521"
   y1="251.4478"
   x2="224.30521"
   y2="334.92529"
   gradientTransform="matrix(1,0,0,-1,84,588.6055)">&#10;        <stop
   offset="0"
   style="stop-color:#16234B"
   id="stop66" />&#10;        <stop
   offset="0.638"
   style="stop-color:#163964"
   id="stop67" />&#10;        <stop
   offset="1"
   style="stop-color:#12436F"
   id="stop68" />&#10;      </linearGradient>&#10;      &#10;        <rect
   id="rect68"
   x="178.472"
   y="253.67999"
   clip-path="url(#SVGID_12_)"
   fill="url(#XMLID_12_)"
   width="259.66599"
   height="83.477997"
   style="fill:url(#linearGradient98)" />&#10;    </g>&#10;  </g>&#10;  <g
   display="inline"
   id="g72">&#10;    <g
   id="g71">&#10;      <defs
   id="defs69" />&#10;      <clipPath
   id="clipPath69">&#10;        <use
   xlink:href="#SVGID_13_"
   overflow="visible"
   id="use69" />&#10;      </clipPath>&#10;      &#10;        <linearGradient
   id="linearGradient71"
   gradientUnits="userSpaceOnUse"
   x1="224.30521"
   y1="251.4478"
   x2="224.30521"
   y2="334.92529"
   gradientTransform="matrix(1,0,0,-1,84,588.6055)">&#10;        <stop
   offset="0"
   style="stop-color:#16234B"
   id="stop69" />&#10;        <stop
   offset="0.638"
   style="stop-color:#163964"
   id="stop70" />&#10;        <stop
   offset="1"
   style="stop-color:#12436F"
   id="stop71" />&#10;      </linearGradient>&#10;      &#10;        <rect
   id="rect71"
   x="178.472"
   y="253.67999"
   clip-path="url(#SVGID_14_)"
   fill="url(#XMLID_14_)"
   width="259.66599"
   height="83.477997"
   style="fill:url(#linearGradient99)" />&#10;    </g>&#10;  </g>&#10;  <g
   display="inline"
   id="g75">&#10;    <g
   id="g74">&#10;      <defs
   id="defs72" />&#10;      <clipPath
   id="clipPath72">&#10;        <use
   xlink:href="#SVGID_15_"
   overflow="visible"
   id="use72" />&#10;      </clipPath>&#10;      &#10;        <linearGradient
   id="linearGradient74"
   gradientUnits="userSpaceOnUse"
   x1="224.30521"
   y1="251.4478"
   x2="224.30521"
   y2="334.92529"
   gradientTransform="matrix(1,0,0,-1,84,588.6055)">&#10;        <stop
   offset="0"
   style="stop-color:#16234B"
   id="stop72" />&#10;        <stop
   offset="0.638"
   style="stop-color:#163964"
   id="stop73" />&#10;        <stop
   offset="1"
   style="stop-color:#12436F"
   id="stop74" />&#10;      </linearGradient>&#10;      &#10;        <rect
   id="rect74"
   x="178.472"
   y="253.67999"
   clip-path="url(#SVGID_16_)"
   fill="url(#XMLID_16_)"
   width="259.66599"
   height="83.477997"
   style="fill:url(#linearGradient100)" />&#10;    </g>&#10;  </g>&#10;  <g
   display="inline"
   id="g78">&#10;    <g
   id="g77">&#10;      <defs
   id="defs75" />&#10;      <clipPath
   id="clipPath75">&#10;        <use
   xlink:href="#SVGID_17_"
   overflow="visible"
   id="use75" />&#10;      </clipPath>&#10;      &#10;        <linearGradient
   id="linearGradient77"
   gradientUnits="userSpaceOnUse"
   x1="224.30521"
   y1="251.4478"
   x2="224.30521"
   y2="334.92529"
   gradientTransform="matrix(1,0,0,-1,84,588.6055)">&#10;        <stop
   offset="0"
   style="stop-color:#16234B"
   id="stop75" />&#10;        <stop
   offset="0.638"
   style="stop-color:#163964"
   id="stop76" />&#10;        <stop
   offset="1"
   style="stop-color:#12436F"
   id="stop77" />&#10;      </linearGradient>&#10;      &#10;        <rect
   id="rect77"
   x="178.472"
   y="253.67999"
   clip-path="url(#SVGID_18_)"
   fill="url(#XMLID_18_)"
   width="259.66599"
   height="83.477997"
   style="fill:url(#linearGradient101)" />&#10;    </g>&#10;  </g>&#10;  <g
   display="inline"
   id="g81">&#10;    <g
   id="g80">&#10;      <defs
   id="defs78" />&#10;      <clipPath
   id="clipPath78">&#10;        <use
   xlink:href="#SVGID_19_"
   overflow="visible"
   id="use78" />&#10;      </clipPath>&#10;      &#10;        <linearGradient
   id="linearGradient80"
   gradientUnits="userSpaceOnUse"
   x1="224.30521"
   y1="251.4478"
   x2="224.30521"
   y2="334.92529"
   gradientTransform="matrix(1,0,0,-1,84,588.6055)">&#10;        <stop
   offset="0"
   style="stop-color:#16234B"
   id="stop78" />&#10;        <stop
   offset="0.638"
   style="stop-color:#163964"
   id="stop79" />&#10;        <stop
   offset="1"
   style="stop-color:#12436F"
   id="stop80" />&#10;      </linearGradient>&#10;      &#10;        <rect
   id="rect80"
   x="178.472"
   y="253.67999"
   clip-path="url(#SVGID_20_)"
   fill="url(#XMLID_21_)"
   width="259.66599"
   height="83.477997"
   style="fill:url(#linearGradient102)" />&#10;    </g>&#10;  </g>&#10;  <g
   display="inline"
   id="g84">&#10;    <g
   id="g83">&#10;      <defs
   id="defs81" />&#10;      <clipPath
   id="clipPath81">&#10;        <use
   xlink:href="#SVGID_21_"
   overflow="visible"
   id="use81" />&#10;      </clipPath>&#10;      &#10;        <linearGradient
   id="linearGradient83"
   gradientUnits="userSpaceOnUse"
   x1="224.30521"
   y1="251.4478"
   x2="224.30521"
   y2="334.92529"
   gradientTransform="matrix(1,0,0,-1,84,588.6055)">&#10;        <stop
   offset="0"
   style="stop-color:#16234B"
   id="stop81" />&#10;        <stop
   offset="0.638"
   style="stop-color:#163964"
   id="stop82" />&#10;        <stop
   offset="1"
   style="stop-color:#12436F"
   id="stop83" />&#10;      </linearGradient>&#10;      &#10;        <rect
   id="rect83"
   x="178.472"
   y="253.67999"
   clip-path="url(#SVGID_22_)"
   fill="url(#XMLID_22_)"
   width="259.66599"
   height="83.477997"
   style="fill:url(#linearGradient103)" />&#10;    </g>&#10;  </g>&#10;  <g
   display="inline"
   id="g87">&#10;    <g
   id="g86">&#10;      <defs
   id="defs84" />&#10;      <clipPath
   id="clipPath84">&#10;        <use
   xlink:href="#SVGID_23_"
   overflow="visible"
   id="use84" />&#10;      </clipPath>&#10;      &#10;        <linearGradient
   id="linearGradient86"
   gradientUnits="userSpaceOnUse"
   x1="224.30521"
   y1="251.4478"
   x2="224.30521"
   y2="334.92529"
   gradientTransform="matrix(1,0,0,-1,84,588.6055)">&#10;        <stop
   offset="0"
   style="stop-color:#16234B"
   id="stop84" />&#10;        <stop
   offset="0.638"
   style="stop-color:#163964"
   id="stop85" />&#10;        <stop
   offset="1"
   style="stop-color:#12436F"
   id="stop86" />&#10;      </linearGradient>&#10;      &#10;        <rect
   id="rect86"
   x="178.472"
   y="253.67999"
   clip-path="url(#SVGID_24_)"
   fill="url(#XMLID_23_)"
   width="259.66599"
   height="83.477997"
   style="fill:url(#linearGradient104)" />&#10;    </g>&#10;  </g>&#10;  <g
   display="inline"
   id="g90">&#10;    <g
   id="g89">&#10;      <defs
   id="defs87" />&#10;      <clipPath
   id="clipPath87">&#10;        <use
   xlink:href="#SVGID_25_"
   overflow="visible"
   id="use87" />&#10;      </clipPath>&#10;      &#10;        <linearGradient
   id="linearGradient89"
   gradientUnits="userSpaceOnUse"
   x1="224.30521"
   y1="251.4478"
   x2="224.30521"
   y2="334.92529"
   gradientTransform="matrix(1,0,0,-1,84,588.6055)">&#10;        <stop
   offset="0"
   style="stop-color:#16234B"
   id="stop87" />&#10;        <stop
   offset="0.638"
   style="stop-color:#163964"
   id="stop88" />&#10;        <stop
   offset="1"
   style="stop-color:#12436F"
   id="stop89" />&#10;      </linearGradient>&#10;      &#10;        <rect
   id="rect89"
   x="178.472"
   y="253.67999"
   clip-path="url(#SVGID_26_)"
   fill="url(#XMLID_24_)"
   width="259.66599"
   height="83.477997"
   style="fill:url(#linearGradient105)" />&#10;    </g>&#10;  </g>&#10;</g></g><g
         id="g94"
         transform="matrix(0.19060886,0,0,0.19060886,213.8643,21.659409)">&#10;    <g
   id="g93">&#10;      <defs
   id="defs67" />&#10;      <clipPath
   id="clipPath67">&#10;        <use
   xlink:href="#SVGID_3_"
   overflow="visible"
   id="use67" />&#10;      </clipPath>&#10;      &#10;        <linearGradient
   id="linearGradient91"
   gradientUnits="userSpaceOnUse"
   x1="220.9995"
   y1="9.7212"
   x2="220.9995"
   y2="555.34027"
   gradientTransform="matrix(1,0,0,-1,84,588.6055)">&#10;        <stop
   offset="0"
   style="stop-color:#C35F28"
   id="stop90" />&#10;        <stop
   offset="1"
   style="stop-color:#E6A33F"
   id="stop91" />&#10;      </linearGradient>&#10;      &#10;    </g>&#10;  </g><g
         id="g122"
         transform="matrix(0.19060886,0,0,0.19060886,213.8643,21.659409)">&#10;    <g
   id="g121">&#10;      <defs
   id="defs94" />&#10;      <clipPath
   id="clipPath94">&#10;        <use
   xlink:href="#SVGID_5_"
   overflow="visible"
   id="use94" />&#10;      </clipPath>&#10;      &#10;        <linearGradient
   id="linearGradient121"
   gradientUnits="userSpaceOnUse"
   x1="220.9995"
   y1="9.7212"
   x2="220.9995"
   y2="555.34027"
   gradientTransform="matrix(1,0,0,-1,84,588.6055)">&#10;        <stop
   offset="0"
   style="stop-color:#C35F28"
   id="stop94" />&#10;        <stop
   offset="1"
   style="stop-color:#E6A33F"
   id="stop95" />&#10;      </linearGradient>&#10;      &#10;    </g>&#10;  </g><g
         id="g124"
         transform="matrix(0.19060886,0,0,0.19060886,213.8643,21.659409)">&#10;    <g
   id="g123">&#10;      <defs
   id="defs122" />&#10;      <clipPath
   id="clipPath122">&#10;        <use
   xlink:href="#SVGID_7_"
   overflow="visible"
   id="use122" />&#10;      </clipPath>&#10;      &#10;        <linearGradient
   id="linearGradient123"
   gradientUnits="userSpaceOnUse"
   x1="220.9995"
   y1="9.7212"
   x2="220.9995"
   y2="555.34027"
   gradientTransform="matrix(1,0,0,-1,84,588.6055)">&#10;        <stop
   offset="0"
   style="stop-color:#C35F28"
   id="stop122" />&#10;        <stop
   offset="1"
   style="stop-color:#E6A33F"
   id="stop123" />&#10;      </linearGradient>&#10;      &#10;    </g>&#10;  </g><g
         id="g4"
         style="fill:#000000;fill-opacity:1"
         transform="matrix(0.02932444,0,0,0.02932444,248.37817,15.282431)">&#10;  <path
   fill-rule="evenodd"
   clip-rule="evenodd"
   d="M 297.54,570.09 C 146.872,570.09 24.73,447.948 24.73,297.28 24.73,146.612 146.872,24.47 297.54,24.47 c 150.669,0 272.81,122.141 272.81,272.81 0,150.669 -122.141,272.81 -272.81,272.81 z M 473.329,122.554 352.704,166.669 298.604,50.181 244.503,166.67 123.878,122.555 167.992,243.18 51.504,297.28 167.992,351.381 123.878,472.006 244.503,427.892 298.604,544.38 352.705,427.892 473.33,472.006 429.215,351.381 545.704,297.28 429.215,243.179 Z M 297.54,427.291 c -71.101,0 -128.945,-57.845 -128.945,-128.945 0,-71.101 57.845,-128.945 128.945,-128.945 71.1,0 128.945,57.844 128.945,128.945 0,71.1 -57.844,128.945 -128.945,128.945 z m 0,-236.577 c -59.348,0 -107.632,48.283 -107.632,107.632 0,59.349 48.284,107.632 107.632,107.632 59.349,0 107.632,-48.283 107.632,-107.632 0,-59.349 -48.283,-107.632 -107.632,-107.632 z"
   id="path2"
   style="fill:#000000;fill-opacity:1" />&#10;</g><g
         id="g172-2"
         transform="matrix(0.03237562,0,0,0.03237562,166.091,14.090648)"
         style="display:inline;fill:#000000;enable-background:new">&#10;    <g
   id="g171-0"
   style="fill:#000000">&#10;      <defs
   id="defs166-2" />&#10;      <clipPath
   id="clipPath166-7">&#10;        <use
   xlink:href="#SVGID_1_"
   overflow="visible"
   id="use166-5" />&#10;      </clipPath>&#10;      &#10;        <linearGradient
   id="linearGradient200"
   gradientUnits="userSpaceOnUse"
   x1="280.7598"
   y1="170.2749"
   x2="20.2687"
   y2="666.68762"
   gradientTransform="matrix(1,0,0,-1,84,588.6055)">&#10;        <stop
   offset="0"
   style="stop-color:#EEDA5B"
   id="stop166-9" />&#10;        <stop
   offset="0.2268"
   style="stop-color:#F0DE81"
   id="stop167-2" />&#10;        <stop
   offset="0.4536"
   style="stop-color:#F2E19C"
   id="stop168-2" />&#10;        <stop
   offset="0.6644"
   style="stop-color:#F3E3B0"
   id="stop169-8" />&#10;        <stop
   offset="0.8528"
   style="stop-color:#F4E5BC"
   id="stop170-9" />&#10;        <stop
   offset="1"
   style="stop-color:#F4E5C0"
   id="stop171-7" />&#10;      </linearGradient>&#10;      <path
   id="circle171-3"
   clip-path="url(#SVGID_2_-7)"
   style="fill:#000000"
   d="M 306.06364 33.275679 A 273.20901 273.20901 0 0 0 32.842518 306.4968 A 273.20901 273.20901 0 0 0 306.06364 579.65759 A 273.20901 273.20901 0 0 0 579.28476 306.4968 A 273.20901 273.20901 0 0 0 306.06364 33.275679 z M 306.06364 182.52475 C 374.11508 182.52475 429.61339 238.02291 429.61339 306.07451 C 429.61339 374.12611 374.11508 429.62427 306.06364 429.62427 C 238.01219 429.62427 182.51388 374.12611 182.51388 306.07451 C 182.51388 238.02291 238.01219 182.52475 306.06364 182.52475 z M 306.06364 213.41219 C 254.70498 213.41219 213.40132 254.71567 213.40132 306.07451 C 213.40132 357.43335 254.70498 398.73683 306.06364 398.73683 C 357.42229 398.73683 398.72595 357.43335 398.72595 306.07451 C 398.72595 254.71567 357.42229 213.41219 306.06364 213.41219 z " />&#10;    </g>&#10;  </g><g
         id="g201"
         transform="translate(20)"><circle
           id="circle201"
           clip-path="url(#SVGID_2_-7)"
           fill="url(#XMLID_4_)"
           cx="306.06299"
           cy="306.47501"
           r="273.20901"
           style="display:inline;fill:#000000;enable-background:new"
           transform="matrix(0.03237562,0,0,0.03237562,196.091,14.090648)" /><ellipse
           style="opacity:1;fill:none;stroke:#ffffff;stroke-width:1;stroke-linecap:square;stroke-linejoin:round"
           id="ellipse201"
           cx="206"
           cy="24.000002"
           rx="3.4999988"
           ry="3.5000019" /></g></g><g
       inkscape:groupmode="layer"
       id="layer3"
       inkscape:label="grid"
       style="display:none"
       sodipodi:insensitive="true"><circle
         cx="64.000031"
         cy="236"
         r="59.504131"
         id="circle2892"
         style="display:inline;opacity:0.1;vector-effect:none;fill:none;fill-opacity:1;stroke:#000000;stroke-width:0.99;stroke-linecap:butt;stroke-linejoin:miter;stroke-miterlimit:4;stroke-dasharray:0.99, 0.99;stroke-dashoffset:0;stroke-opacity:1;marker:none;marker-start:none;marker-mid:none;marker-end:none;paint-order:normal;enable-background:new" /><rect
         ry="7.9292889"
         rx="8.701004"
         y="180.49496"
         x="20.495007"
         height="111.01005"
         width="87.009987"
         id="rect2894"
         style="display:inline;opacity:0.1;vector-effect:none;fill:none;fill-opacity:1;stroke:#000000;stroke-width:0.99;stroke-linecap:butt;stroke-linejoin:miter;stroke-miterlimit:4;stroke-dasharray:0.99, 0.99;stroke-dashoffset:0;stroke-opacity:1;marker:none;marker-start:none;marker-mid:none;marker-end:none;paint-order:normal;enable-background:new" /><rect
         ry="7.9238095"
         rx="7.9238095"
         y="184.49524"
         x="12.495266"
         height="103.00952"
         width="103.00952"
         id="rect2896"
         style="display:inline;opacity:0.1;vector-effect:none;fill:none;fill-opacity:1;stroke:#000000;stroke-width:0.99;stroke-linecap:butt;stroke-linejoin:miter;stroke-miterlimit:4;stroke-dasharray:0.99, 0.99;stroke-dashoffset:0;stroke-opacity:1;marker:none;marker-start:none;marker-mid:none;marker-end:none;paint-order:normal;enable-background:new" /><rect
         ry="8.701005"
         rx="7.9292889"
         y="200.49496"
         x="8.4950066"
         height="87.010048"
         width="111.01004"
         id="rect2898"
         style="display:inline;opacity:0.1;vector-effect:none;fill:none;fill-opacity:1;stroke:#000000;stroke-width:0.99;stroke-linecap:butt;stroke-linejoin:miter;stroke-miterlimit:4;stroke-dasharray:0.99, 0.99;stroke-dashoffset:0;stroke-opacity:1;marker:none;marker-start:none;marker-mid:none;marker-end:none;paint-order:normal;enable-background:new" /><path
         inkscape:connector-curvature="0"
         id="path2900"
         d="M 2.6203015e-5,288.99999 H 128.00003"
         style="display:inline;fill:none;stroke:#62a0ea;stroke-width:2;stroke-linecap:butt;stroke-linejoin:miter;stroke-miterlimit:4;stroke-dasharray:none;stroke-opacity:1;enable-background:new" /></g></g></svg>
